{
    "嗅探词":"m3u8?#ixigua#.czspp#.m3u8#mp4#.flv#.mp3#.m4a#.mp4#item/video#is_play_url=1",
    "免嗅":"0",
    
    "副标题":"class=\"score\">&&</span>",
   
    "线路数组": "class=\"play\">&&</div>",
    "线路标题": "<span>&&</span>",
    
    
    "播放数组":"class=\"playlist&&</ul>",
     "导演": "导演：&&</li>",
     "主演": "主演：&&</li>",
     "简介": "剧情介绍：&&</span>",
    
   
    "分类url":"http://www.kuaikanys.net/s/{cateId}/page/{catePg}.html",
    "分类":"电影$dianying#连续剧$lianxuju#综艺$zongyi#动漫$dongman",
    "类型":"dianying--动作片$dongzuopian#爱情片$aiqingpian#科幻片$kehuanpian#恐怖片$kongbupian#战争片$zhanzhengpian#喜剧片$xijupian#纪录片$jilupian#剧情片$juqingpian||lianxuju--国产剧$guochanju#港台剧$gangtaiju#日韩剧$rihanju#欧美剧$oumeiju]",
    "地区":"0","剧情":"0","年份":"0","排序":"0","筛选":"1"
   }
   
